

{
	"sProcessing":   "Warten...",
	"sLengthMenu":   "_MENU_ Einträge anzeigen",
	"sZeroRecords":  "Keine Einträge.",
	"sInfo":         "Beiträge von _START_ bis _END_ von _TOTAL_ Beiträgen",
	"sInfoEmpty":    "Datensätze von 0 bis 0 von 0 Datensätzen",
	"sInfoFiltered": "(gefiltert aus _MAX_ Datensätzen)",
	"sInfoPostFix":  "",
	"sSearch":       "Suche:",
	"sUrl":          "",
	"oPaginate": {
		"sFirst": "Zuerst",
		"sPrevious": "Bisherige",
		"sNext": "Nächster",
		"sLast": "Zuletzt"
	},
	"oAria": {
		"sSortAscending":  ": aktivieren, um die Spalte aufsteigend zu sortieren",
		"sSortDescending": ": aktivieren, um Spalten absteigend zu sortieren"
	}
}
